{
  "project_info": {
    "project_number": "511599695525",
    "project_id": "ican-android-6966b",
    "storage_bucket": "ican-android-6966b.appspot.com"
  },
  "client": [
    {
      "client_info": {
        "mobilesdk_app_id": "1:511599695525:android:ceb01bb90eb7bc90d89f4c",
        "android_client_info": {
          "package_name": "app.ipp.ic4c"
        }
      },
      "oauth_client": [
        {
          "client_id": "511599695525-7u8cci6l0ad0j1aaj6ijb2blu084c3fr.apps.googleusercontent.com",
          "client_type": 1,
          "android_info": {
            "package_name": "app.ipp.ic4c",
            "certificate_hash": "13e5e2a539f127ff015f776e83a092d675790d0f"
          }
        },
        {
          "client_id": "511599695525-91mguvlntjckdplgqghmslfe06f71flu.apps.googleusercontent.com",
          "client_type": 1,
          "android_info": {
            "package_name": "app.ipp.ic4c",
            "certificate_hash": "cd6e169278cfd574a626b98e5be9996bb0f645c6"
          }
        },
        {
          "client_id": "511599695525-ta1imjf08nee0oj3jj42d6hik3iqkevj.apps.googleusercontent.com",
          "client_type": 3
        }
      ],
      "api_key": [
        {
          "current_key": "AIzaSyCn3VQpz6JSuJktYp0aBmuVJsP5Dl34hsI"
        }
      ],
      "services": {
        "appinvite_service": {
          "other_platform_oauth_client": [
            {
              "client_id": "511599695525-ta1imjf08nee0oj3jj42d6hik3iqkevj.apps.googleusercontent.com",
              "client_type": 3
            }
          ]
        }
      }
    },
    {
      "client_info": {
        "mobilesdk_app_id": "1:511599695525:android:2e998a36135454add89f4c",
        "android_client_info": {
          "package_name": "app.ipp.ican_extension"
        }
      },
      "oauth_client": [
        {
          "client_id": "511599695525-7a5j1nr953a6vndgsgq1ngo86tidh7sm.apps.googleusercontent.com",
          "client_type": 1,
          "android_info": {
            "package_name": "app.ipp.ican_extension",
            "certificate_hash": "13e5e2a539f127ff015f776e83a092d675790d0f"
          }
        },
        {
          "client_id": "511599695525-ta1imjf08nee0oj3jj42d6hik3iqkevj.apps.googleusercontent.com",
          "client_type": 3
        }
      ],
      "api_key": [
        {
          "current_key": "AIzaSyCn3VQpz6JSuJktYp0aBmuVJsP5Dl34hsI"
        }
      ],
      "services": {
        "appinvite_service": {
          "other_platform_oauth_client": [
            {
              "client_id": "511599695525-ta1imjf08nee0oj3jj42d6hik3iqkevj.apps.googleusercontent.com",
              "client_type": 3
            }
          ]
        }
      }
    },
    {
      "client_info": {
        "mobilesdk_app_id": "1:511599695525:android:9e1cb2ab1f90bf20d89f4c",
        "android_client_info": {
          "package_name": "com.intl_payments.ic4c"
        }
      },
      "oauth_client": [
        {
          "client_id": "511599695525-5avdgr15u3f613m4lu4bu8retls93mgv.apps.googleusercontent.com",
          "client_type": 1,
          "android_info": {
            "package_name": "com.intl_payments.ic4c",
            "certificate_hash": "510e8143811a1c69d6bc47ee5c3f198dc69c48a8"
          }
        },
        {
          "client_id": "511599695525-ta1imjf08nee0oj3jj42d6hik3iqkevj.apps.googleusercontent.com",
          "client_type": 3
        }
      ],
      "api_key": [
        {
          "current_key": "AIzaSyCn3VQpz6JSuJktYp0aBmuVJsP5Dl34hsI"
        }
      ],
      "services": {
        "appinvite_service": {
          "other_platform_oauth_client": [
            {
              "client_id": "511599695525-ta1imjf08nee0oj3jj42d6hik3iqkevj.apps.googleusercontent.com",
              "client_type": 3
            }
          ]
        }
      }
    },
    {
      "client_info": {
        "mobilesdk_app_id": "1:511599695525:android:bb2eb09cc10e4039d89f4c",
        "android_client_info": {
          "package_name": "ican.mrp.test"
        }
      },
      "oauth_client": [
        {
          "client_id": "511599695525-uthne6qd803ken899951kibo53i9isk8.apps.googleusercontent.com",
          "client_type": 1,
          "android_info": {
            "package_name": "ican.mrp.test",
            "certificate_hash": "319d6e91ad2209fd3609dd5499f89612a98a18d4"
          }
        },
        {
          "client_id": "511599695525-ta1imjf08nee0oj3jj42d6hik3iqkevj.apps.googleusercontent.com",
          "client_type": 3
        }
      ],
      "api_key": [
        {
          "current_key": "AIzaSyCn3VQpz6JSuJktYp0aBmuVJsP5Dl34hsI"
        }
      ],
      "services": {
        "appinvite_service": {
          "other_platform_oauth_client": [
            {
              "client_id": "511599695525-ta1imjf08nee0oj3jj42d6hik3iqkevj.apps.googleusercontent.com",
              "client_type": 3
            }
          ]
        }
      }
    }
  ],
  "configuration_version": "1"
}